[{"state_abbreviation": "AK", "state": "Alaska", "status": "reopened", "date_details": "Reopened April 24.", "restriction_start": null, "restriction_end": null, "status_details": "Gov. Mike Dunleavy, a Republican, eased restrictions on several kinds of businesses starting April 24. Alaska became one of the first states to make a nearly complete reopening, with all businesses allowed to open at full capacity on May 22.", "external_link": "https://www.cnn.com/2020/05/21/us/alaska-reopening-friday/index.html", "opened_entertainment": "Libraries; Theaters; Bowling alleys; Museums", "opened_industries": null, "opened_food_and_drink": "Restaurant dining; Bars", "closed_food_and_drink": null, "opened_retail": "Retail stores", "opened_personal_care": "Hair salons, barbershops, nail salons, etc.", "closed_entertainment": null, "closed_outdoor_and_recreation": null, "opened_houses_of_worship": "True", "opened_outdoor_and_recreation": "Gyms; Pools", "population": "731545"},
{"state_abbreviation": "AL", "state": "Alabama", "status": "pausing", "date_details": "Reopened April 30.", "restriction_start": null, "restriction_end": null, "status_details": "Gov. Kay Ivey, a Republican, ordered residents to stay home for much of April and began reopening businesses starting in May. Ms. Ivey recently extended the state\u2019s \u201cSafer at Home\u201d status and implemented a mask requirement until the end of August.", "external_link": "https://www.wsfa.com/2020/07/29/gov-ivey-update-public-states-repsonse-covid-/", "opened_entertainment": "Entertainment venues", "opened_industries": null, "opened_food_and_drink": "Restaurant dining, bars and breweries", "closed_food_and_drink": null, "opened_retail": "Retail stores", "opened_personal_care": "Salons", "closed_entertainment": null, "closed_outdoor_and_recreation": null, "opened_houses_of_worship": "True", "opened_outdoor_and_recreation": "Beaches; Gyms", "population": "4903185"},
{"state_abbreviation": "AR", "state": "Arkansas", "status": "pausing", "date_details": "Reopened May 6.", "restriction_start": null, "restriction_end": null, "status_details": "Gov. Asa Hutchinson, a Republican, never implemented a statewide stay-at-home order, instead opting to close high-contact businesses like gyms and personal care services. The state began reopening many of these in early May. Arkansas has seen one of the steepest increases in coronavirus cases since reopening. In response, Mr. Hutchinson implemented a mask mandate effective July 20.", "external_link": "https://www.kspr.com/content/news/Arkansas-governor-No-further-reopening-as-virus-cases-surge-571501921.html", "opened_entertainment": "Theaters, stadiums, museums, bowling alleys; Casinos; Large venues", "opened_industries": null, "opened_food_and_drink": "Restaurant dining; Bars", "closed_food_and_drink": null, "opened_retail": "Retail", "opened_personal_care": "Hair salons, barbershops, nail salons, etc.", "closed_entertainment": null, "closed_outdoor_and_recreation": null, "opened_houses_of_worship": "True", "opened_outdoor_and_recreation": "Campgrounds; Gyms; Pools", "population": "3017804"},
{"state_abbreviation": "AZ", "state": "Arizona", "status": "reversing", "date_details": "Reopened May 8.", "restriction_start": null, "restriction_end": null, "status_details": "After Gov. Doug Ducey\u2019s stay-at-home order expired May 15, Arizona saw cases soar. In late June, Mr. Ducey, a Republican, announced that the state would \u201cpause\u201d operations of bars, gyms, movie theaters, waterparks and tubing rentals to contain the virus\u2019s spread, sparking lawsuits from some business owners. A court ruled that the state had to give businesses the opportunity to reopen safely, prompting Mr. Ducey to release guidelines on August 10 for \u201cpaused businesses\u201d to follow in order to reopen.", "external_link": "https://www.fox10phoenix.com/news/arizona-gov-ducey-releases-guidelines-for-paused-businesses-to-reopen", "opened_entertainment": "Casinos", "opened_industries": null, "opened_food_and_drink": "Restaurant dining", "closed_food_and_drink": "Bars", "opened_retail": "Retail stores", "opened_personal_care": "Barbershops, salons, etc.", "closed_entertainment": "Movie theaters", "closed_outdoor_and_recreation": "Gyms; Waterparks", "opened_houses_of_worship": "True", "opened_outdoor_and_recreation": "Pools, spas", "population": "7278717"},
{"state_abbreviation": "CA", "state": "California", "status": "reversing", "date_details": "Reopened May 25.", "restriction_start": null, "restriction_end": null, "status_details": "Gov. Gavin Newsom, a Democrat, emphasized caution as he allowed counties to reopen sectors in May and June. As cases rose in June and July, however, Mr. Newsom backtracked, ordering statewide closures of bars and indoor activities in many sectors including dining and entertainment. The state is also keeping a \u201cwatch list\u201d of counties with upward virus trends.", "external_link": "https://www.latimes.com/projects/california-coronavirus-cases-tracking-outbreak/reopening-across-counties/", "opened_entertainment": "Casinos in some areas; Zoos in some counties", "opened_industries": "Manufacturing; Warehouses; Offices in some counties; Movie, TV and music production", "opened_food_and_drink": "Outdoor dining", "closed_food_and_drink": "Bars", "opened_retail": "Retail", "opened_personal_care": "Pet groomers; Hair salons and barbershops in some counties; Nail salons, cosmetology services, tattoo parlors, piercing shops in some counties; Hair salons and barbershops for outdoor service in most counties", "closed_entertainment": "Movie theaters; Museums, galleries, and aquariums; Arcades and bowling alleys", "closed_outdoor_and_recreation": null, "opened_houses_of_worship": "Houses of worship in some counties", "opened_outdoor_and_recreation": "Gyms in some counties", "population": "39512223"},
{"state_abbreviation": "CO", "state": "Colorado", "status": "reversing", "date_details": "Reopened April 27.", "restriction_start": null, "restriction_end": null, "status_details": "Gov. Jared Polis was one of the first Democratic governors to begin reopening his state, letting Colorado\u2019s stay-at-home order expire on April 26. Businesses reopened throughout May and June, but in response to continuing outbreaks in neighboring states, in July, Mr. Polis extended the state\u2019s \u201cSafer at Home\u201d phase and closed bars. He is allowing some regions to reopen bars and loosen restrictions.", "external_link": "https://denver.cbslocal.com/2020/06/30/polis-colorado-bars-coronavirus/", "opened_entertainment": "Museums, indoor events; Fairs, rodeos, concerts, outdoor events; Libraries", "opened_industries": "Offices; Manufacturing", "opened_food_and_drink": "Restaurant dining", "closed_food_and_drink": "Bars", "opened_retail": "Retail stores", "opened_personal_care": "Salons and personal services", "closed_entertainment": "Casinos", "closed_outdoor_and_recreation": null, "opened_houses_of_worship": "True", "opened_outdoor_and_recreation": "Campgrounds; Pools, playgrounds; Gyms", "population": "5758736"},
{"state_abbreviation": "CT", "state": "Connecticut", "status": "pausing", "date_details": "Reopened May 20.", "restriction_start": null, "restriction_end": null, "status_details": "Connecticut was one of the last states to begin reopening, on May 20. Gov. Ned Lamont, a Democrat, moved up a second phase of reopening in June after a favorable downward trend in case numbers. But Mr. Lamont postponed a third phase in response to rising cases in neighboring states.", "external_link": "https://www.courant.com/coronavirus/hc-news-coronavirus-clb-reopening-paused-20200707-lnivp6hb4redtphmjj7yif3kci-story.html", "opened_entertainment": "Museums, zoos; Casinos; Movie theaters; Libraries; Amusement parks, bowling alleys", "opened_industries": "Offices", "opened_food_and_drink": "Restaurant dining", "closed_food_and_drink": "Bars", "opened_retail": "Retail stores, malls", "opened_personal_care": "Hair salons, barbershops; Nail salons; Tattoo parlors, spas", "closed_entertainment": null, "closed_outdoor_and_recreation": null, "opened_houses_of_worship": "True", "opened_outdoor_and_recreation": "Beaches; Gyms; State campgrounds", "population": "3565287"},
{"state_abbreviation": "DC", "state": "District of Columbia", "status": "reopening", "date_details": "Reopened May 29.", "restriction_start": null, "restriction_end": null, "status_details": "Washington, D.C., was under one of the nation\u2019s strictest lockdowns until reopening on May 29. On June 22,  Mayor Muriel Bowser, a Democrat, opened a second round of businesses. On July 24, she signed an order requiring masks.", "external_link": "https://dcist.com/story/20/07/29/d-c-just-made-it-harder-to-move-to-phase-three-of-reopening/", "opened_entertainment": "Museums, libraries", "opened_industries": null, "opened_food_and_drink": "Restaurants dining", "closed_food_and_drink": null, "opened_retail": "Retail stores", "opened_personal_care": "Barbershops, hair salons; Nail salons, waxing salons, spas", "closed_entertainment": "Nightclubs", "closed_outdoor_and_recreation": null, "opened_houses_of_worship": "True", "opened_outdoor_and_recreation": "Dog parks, golf courses, tennis courts, parks; Gyms; Pools", "population": "705749"},
{"state_abbreviation": "DE", "state": "Delaware", "status": "pausing", "date_details": "Reopened June 1.", "restriction_start": null, "restriction_end": null, "status_details": "Gov. John Carney, a Democrat, has overseen one of the slower reopenings, beginning June 1 with a limited number of businesses. After an increase in cases, Mr. Carney decided to delay the start of Phase 3, which was scheduled for the end of June.", "external_link": "https://www.delawareonline.com/story/news/coronavirus-in-delaware/2020/06/25/delaware-wont-go-into-phase-3-monday-gov-john-carney-says-coronavirus-delaware-reopen-covid-19/3260541001/", "opened_entertainment": "Museums, libraries, galleries, live performances; Casinos", "opened_industries": null, "opened_food_and_drink": "Farmers markets; Restaurants; Bars in some areas", "closed_food_and_drink": null, "opened_retail": "Retail stores; Malls", "opened_personal_care": "Barber shops, hair salons, tanning salons; Nail salons, tattoo parlors, massage therapy", "closed_entertainment": null, "closed_outdoor_and_recreation": null, "opened_houses_of_worship": "True", "opened_outdoor_and_recreation": "Beaches; Pools; Gyms; Campgrounds", "population": "973764"},
{"state_abbreviation": "FL", "state": "Florida", "status": "reversing", "date_details": "Reopened May 4.", "restriction_start": null, "restriction_end": null, "status_details": "Gov. Ron DeSantis, a Republican, gradually opened businesses in May, starting in Florida\u2019s less populous counties. In early June, he moved forward with reopening bars and larger entertainment venues in some counties, even as case counts rose. On June 26, he moved to effectively shutter bars again after a spike in cases.", "external_link": "https://www.tampabay.com/news/health/2020/06/26/drinking-alcohol-at-florida-bars-suspended/", "opened_entertainment": "Sporting venues without spectators; Museums, libraries; Movie theaters, concert halls, bowling alleys in most counties", "opened_industries": null, "opened_food_and_drink": "Restaurant dining", "closed_food_and_drink": "Bars", "opened_retail": "Retail stores", "opened_personal_care": "Salons; Tattoo parlors, massage therapy, tanning salons, acupuncture in most counties", "closed_entertainment": null, "closed_outdoor_and_recreation": null, "opened_houses_of_worship": "True", "opened_outdoor_and_recreation": "Beaches, trails; Gyms", "population": "21477737"},
{"state_abbreviation": "GA", "state": "Georgia", "status": "reopened", "date_details": "Reopened April 24.", "restriction_start": null, "restriction_end": null, "status_details": "Gov. Brian Kemp, a Republican, went toe-to-toe with the White House and local mayors over his decision to reopen large parts of Georgia\u2019s economy ahead of other states. Mr. Kemp has continued steadily with reopening plans while case counts have trended upward, and he has firmly opposed recommendations for a statewide mask mandate. In mid-August, however, he amended an executive order to allow local areas to implement mask requirements.", "external_link": "https://www.ajc.com/politics/politics-blog/kemps-latest-order-allows-local-mask-mandates-for-the-first-time/GJRZ2AXEB5GEPN2TX6BPJGEC24/", "opened_entertainment": "Bowling alleys; Theaters, private social clubs; Large venues; Bars, nightclubs", "opened_industries": null, "opened_food_and_drink": "Restaurant dining", "closed_food_and_drink": null, "opened_retail": "Retail", "opened_personal_care": "Hair salons, barbershops, etc.", "closed_entertainment": null, "closed_outdoor_and_recreation": null, "opened_houses_of_worship": "True", "opened_outdoor_and_recreation": "Gyms", "population": "10617423"},
{"state_abbreviation": "HI", "state": "Hawaii", "status": "reversing", "date_details": "Reopened May 7.", "restriction_start": null, "restriction_end": null, "status_details": "Gov. David Ige, a Democrat, started the state\u2019s reopening process in early May, when there were only a few new cases reported each day. Each island can now set its own timeline for reopening, with the governor\u2019s approval. Despite the slow approach, Hawaii has seen a resurgence of the virus. In response, Oahu recently moved to close parks and beaches, and Mr. Ige reinstated a quarantine requirement for inter-island travel.", "external_link": "https://www.civilbeat.org/2020/08/the-interisland-travel-quarantine-is-coming-back-oahu-beaches-and-parks-to-close-again/", "opened_entertainment": "Theaters in some areas; Arcades, bowling alleys, mini golf in some areas", "opened_industries": "Construction in some areas; Offices in some areas", "opened_food_and_drink": "Restaurant dining; Bars in some areas", "closed_food_and_drink": null, "opened_retail": "Retail stores", "opened_personal_care": "Pet groomers; Nail salons in some areas; Tattoo parlors in some areas; Salons and barbershops", "closed_entertainment": null, "closed_outdoor_and_recreation": null, "opened_houses_of_worship": "True", "opened_outdoor_and_recreation": "Beaches and parks in some areas; State parks in some areas; Pools and waterparks in some areas; Campgrounds in some areas; Gyms", "population": "1415872"},
{"state_abbreviation": "IA", "state": "Iowa", "status": "reopened", "date_details": "Reopened May 1.", "restriction_start": null, "restriction_end": null, "status_details": "Gov. Kim Reynolds, a Republican, ordered a number of businesses to close in March, but did not issue a stay-at-home order. Ms. Reynolds began loosening restrictions on May 1, and capacity limits on businesses were lifted in June.", "external_link": "https://ktiv.com/2020/06/10/watch-live-gov-reynolds-hold-news-conference-on-covid-19/", "opened_entertainment": "Libraries; Movie theaters; Museums, zoos, aquariums; Casinos; Outdoor venues; Bowling alleys, amusement parks; Indoor venues", "opened_industries": null, "opened_food_and_drink": "Restaurant dining; Bars", "closed_food_and_drink": null, "opened_retail": "Retail stores, malls", "opened_personal_care": "Medical spas, tanning salons; Salons, barbershops, tattoo parlors, etc.", "closed_entertainment": null, "closed_outdoor_and_recreation": null, "opened_houses_of_worship": "True", "opened_outdoor_and_recreation": "Campgrounds; Gyms; Pools; Playgrounds, skating rinks, skate parks", "population": "3155070"},
{"state_abbreviation": "ID", "state": "Idaho", "status": "pausing", "date_details": "Reopened May 1.", "restriction_start": null, "restriction_end": null, "status_details": "Gov. Brad Little, a Republican, began his state\u2019s four-stage reopening process on May 1. Idaho moved through the first three stages of reopening swiftly, but as cases surged, Mr. Little delayed a full reopening planned for June 26. The state has remained paused in its final stage for over a month now, re-evaluating every two weeks.", "external_link": "https://www.kmvt.com/2020/08/06/gov-brad-little-to-hold-press-conference-on-idaho-reopening-opening-of-schools/", "opened_entertainment": "Movie theaters; Nightclubs; Large venues", "opened_industries": null, "opened_food_and_drink": "Restaurant dining; Bars", "closed_food_and_drink": null, "opened_retail": "Retail", "opened_personal_care": "Hair salons", "closed_entertainment": null, "closed_outdoor_and_recreation": null, "opened_houses_of_worship": "True", "opened_outdoor_and_recreation": "Gyms; Pools and water parks", "population": "1787065"},
{"state_abbreviation": "IL", "state": "Illinois", "status": "reversing", "date_details": "Reopened May 29.", "restriction_start": null, "restriction_end": null, "status_details": "Gov. J.B. Pritzker, a Democrat, faced political pushback for his cautious reopening strategy, but Illinois has not seen a strong upward trend in cases. On June 26, the state moved into its fourth and final stage of reopening, but as transmission increased over the summer Mr. Pritzker introduced a \"mitigation\" plan for areas with increasing positive test rates. In mid-August, Mr. Pritzker closed bars, restaurants and casinos in one of the state's regions.", "external_link": "https://www.wbez.org/stories/use-this-tool-to-track-illinois-reopening-plan-by-phase-region-and-address/51871836-6a73-47dc-a8f1-18c6fe2f2a6e", "opened_entertainment": "Museums, zoos; Theaters; Casinos in some areas", "opened_industries": "Manufacturing; Offices", "opened_food_and_drink": "Restaurant dining in some areas; Bars in some areas", "closed_food_and_drink": null, "opened_retail": "Retail stores", "opened_personal_care": "Pet grooming; Hair salons, barber shops, nail salons, spas, waxing centers, tattoo parlors", "closed_entertainment": null, "closed_outdoor_and_recreation": null, "opened_houses_of_worship": "True", "opened_outdoor_and_recreation": "State parks; limited fishing, boating, golf courses; Gyms", "population": "12671821"},
{"state_abbreviation": "IN", "state": "Indiana", "status": "pausing", "date_details": "Reopened May 4.", "restriction_start": null, "restriction_end": null, "status_details": "Gov. Eric Holcomb, a Republican, eased restrictions and allowed some reopenings beginning in early May. In July, citing an increase in cases, Mr. Holcomb paused progress toward the final stage of reopening. He later required face masks in most public settings beginning July 27.", "external_link": "https://www.indystar.com/story/news/health/2020/07/29/indiana-coronavirus-stage-4-5-continue-through-least-aug-27/5538222002/", "opened_entertainment": "Libraries; Museums, zoos and aquariums; Venues; Movie theaters; Bowling alleys; Conventions, fairs, parades and similar events in most counties", "opened_industries": "Manufacturing, offices", "opened_food_and_drink": "Restaurant dining; Bars and nightclubs", "closed_food_and_drink": null, "opened_retail": "Retail stores", "opened_personal_care": "Spas, salons, barbershops, tattoo parlors", "closed_entertainment": null, "closed_outdoor_and_recreation": null, "opened_houses_of_worship": "True", "opened_outdoor_and_recreation": "Gyms; Pools, tennis and basketball courts; Campgrounds; Amusement parks, water parks", "population": "6732219"},
{"state_abbreviation": "KS", "state": "Kansas", "status": "reopened", "date_details": "Reopened May 4.", "restriction_start": null, "restriction_end": null, "status_details": "After reopening began May 4, Gov. Laura Kelly, a Democrat, faced backlash from Republicans in the state legislature who wanted the process to move more quickly. She vetoed a measure seeking to curb her emergency powers, and allowed reopenings at the discretion of individual counties. Ms. Kelly ordered Kansans to wear masks in public beginning July 3.", "external_link": "https://www.kansas.com/news/politics-government/article244554662.html", "opened_entertainment": "Theaters, museums and bowling alleys; Casinos; Nightclubs", "opened_industries": "Offices", "opened_food_and_drink": "Restaurant dining; Bars", "closed_food_and_drink": null, "opened_retail": "Retail stores", "opened_personal_care": "Salons, barbershops, tattoo parlors", "closed_entertainment": null, "closed_outdoor_and_recreation": null, "opened_houses_of_worship": "True", "opened_outdoor_and_recreation": "Gyms; Community centers, sports facilities; Pools", "population": "2913314"},
{"state_abbreviation": "KY", "state": "Kentucky", "status": "reopened", "date_details": "Reopened May 20.", "restriction_start": null, "restriction_end": null, "status_details": "Gov. Andy Beshear, a Democrat, reopened businesses under new guidelines beginning in early May, then ordered residents to wear masks in public soon after the state had reached the end of its initial reopening timeline. As case numbers continued to climb, Mr. Beshear ordered bars to close again starting July 28 and restaurants to reduce indoor dining capacity. Mr. Beshear lifted those restrictions and allowed bars to reopen two weeks later.", "external_link": "https://www.rcnky.com/articles/2020/08/10/governor-delay-person-school-until-sept-28-bars-reopen-restaurants-expand", "opened_entertainment": "Movie theaters; Bowling alleys; Museums, aquariums, libraries, outdoor attractions; Venues and events spaces", "opened_industries": "Manufacturing, construction, offices", "opened_food_and_drink": "Restaurant dining; Distilleries; Bars", "closed_food_and_drink": null, "opened_retail": "Retail stores", "opened_personal_care": "Pet grooming and boarding; Salons, barbershops, tattoo parlors, etc.", "closed_entertainment": null, "closed_outdoor_and_recreation": null, "opened_houses_of_worship": "True", "opened_outdoor_and_recreation": "Gyms; Aquatic centers; Campgrounds; Public pools", "population": "4467673"},
{"state_abbreviation": "LA", "state": "Louisiana", "status": "reversing", "date_details": "Reopened May 15.", "restriction_start": null, "restriction_end": null, "status_details": "Gov. John Bel Edwards, a Democrat, allowed the state\u2019s stay-at-home order to lift and an array of businesses to reopen starting May 15. In June, citing an increase in cases, Mr. Edwards said the state would remain in Phase 2 for several more weeks. As cases continued to climb, Mr. Edwards ordered bars to close again and required the use of masks in public, later saying that these restrictions would remain in place through late August.", "external_link": "https://www.wdsu.com/article/watch-live-gov-edwards-providing-biweekly-covid-19-update/33513056", "opened_entertainment": "Movie theaters; Certain museums, zoos and aquariums; Casinos; Event centers", "opened_industries": null, "opened_food_and_drink": "Restaurant dining", "closed_food_and_drink": "Bars", "opened_retail": "Malls", "opened_personal_care": "Salons and barbershops; Spas, tattoo parlors", "closed_entertainment": null, "closed_outdoor_and_recreation": "Amusement parks, water parks and theme parks; Concert and music halls", "opened_houses_of_worship": "True", "opened_outdoor_and_recreation": "Gyms; State parks; Pools; Bowling alleys, skating rinks", "population": "4648794"},
{"state_abbreviation": "MA", "state": "Massachusetts", "status": "pausing", "date_details": "Reopened May 18.", "restriction_start": null, "restriction_end": null, "status_details": "Gov. Charlie Baker, a Republican, announced a phased reopening beginning in May. The state entered the first step of phase three in early July. One month later, Mr. Baker announced that the state would indefinitely delay any further progression due to an increase in cases. Mr. Baker also announced he would reduce outdoor gathering limits to 50 people.", "external_link": "https://www.bostonglobe.com/2020/08/07/nation/baker-reduces-limit-outdoor-gatherings-50-people/", "opened_entertainment": "Bowling alleys; Museums, aquariums; Theaters and performance venues; Movie theaters; Casinos", "opened_industries": "Construction, manufacturing; Offices; Hotels, lodging", "opened_food_and_drink": "Restaurant dining", "closed_food_and_drink": "Bars", "opened_retail": "Retail stores", "opened_personal_care": "Hair salons, barbershops; Pet grooming; Nail salons, massage parlors, tanning salons", "closed_entertainment": "Ballrooms, stadiums and convention halls", "closed_outdoor_and_recreation": null, "opened_houses_of_worship": "True", "opened_outdoor_and_recreation": "Golf courses; Beaches, parks, fishing, hunting and boating; Gyms", "population": "6892503"},
{"state_abbreviation": "MD", "state": "Maryland", "status": "pausing", "date_details": "Reopened May 15.", "restriction_start": null, "restriction_end": null, "status_details": "Gov. Larry Hogan, a Republican who has called for an aggressive response to the virus, allowed some businesses to open with social distancing requirements starting May 15, but encouraged the adoption of more restrictive local guidelines as needed. In late July, Mr. Hogan said the state was \u201cin a holding pattern\u201d and \u201cnot ready to reopen further.\u201d He later expanded a statewide mask order, requiring face coverings in nearly all public settings.", "external_link": "https://www.wbaltv.com/article/coronavirus-maryland-governor-larry-hogan-response-recovery-efforts/33450849", "opened_entertainment": "Casinos", "opened_industries": "Manufacturing; Construction, offices", "opened_food_and_drink": "Outdoor service at breweries, wineries, and distilleries; Restaurants; Bars", "closed_food_and_drink": null, "opened_retail": "Retail stores; Malls", "opened_personal_care": "Hair salons, barbershops; Nail salons, massage parlors, tanning salons, tattoo parlors", "closed_entertainment": "Theaters", "closed_outdoor_and_recreation": null, "opened_houses_of_worship": "True", "opened_outdoor_and_recreation": "Golf courses, outdoor shooting ranges, marinas, campgrounds; Beaches; Outdoor pools and day camps; Gyms", "population": "6045680"},
{"state_abbreviation": "ME", "state": "Maine", "status": "reopening", "date_details": "Reopened May 1.", "restriction_start": null, "restriction_end": null, "status_details": "Gov. Janet Mills, a Democrat, allowed some businesses to begin reopening statewide in May and allowed additional, accelerated reopenings in counties with few coronavirus cases. More businesses were allowed to reopen statewide in June, but further reopenings, including of bars, have been delayed.", "external_link": "https://bangordailynews.com/2020/06/22/business/janet-mills-postpones-reopening-indoor-bar-service-citing-infections-in-other-states/", "opened_entertainment": "Amusement parks, water parks; Bowling alleys and arcades; Movie theaters; Performing arts venues; Casinos", "opened_industries": null, "opened_food_and_drink": "Restaurants; Bars open for outdoor service", "closed_food_and_drink": "Bars for indoor service", "opened_retail": "Retail stores", "opened_personal_care": "Hair salons, barbershops, pet groomers; Nail salons and tattoo parlors; Spas and massage parlors", "closed_entertainment": null, "closed_outdoor_and_recreation": null, "opened_houses_of_worship": "True", "opened_outdoor_and_recreation": "State parks, boating, golf courses; Remote campgrounds, hunting and fishing; Private campgrounds, RV parks; Gyms", "population": "1344212"},
{"state_abbreviation": "MI", "state": "Michigan", "status": "reversing", "date_details": "Reopened June 1.", "restriction_start": null, "restriction_end": null, "status_details": "Gov. Gretchen Whitmer, a Democrat, took a regional approach to reopening before lifting Michigan\u2019s stay-at-home order on June 1. Ms. Whitmer has since paused further reopenings, and on July 1, she ordered bars in most of the state to close again for indoor service. She later mandated the use of masks in most public settings. In late July, citing a resurgence in cases connected to social gatherings, Ms. Whitmer limited indoor gatherings to 10 people and ordered bars to close for indoor service statewide.", "external_link": "https://www.freep.com/story/news/local/michigan/2020/07/29/detroit-casinos-reopening-michigan-restrictions/5537945002/", "opened_entertainment": "Arcades, bowling alleys, theaters, night clubs and convention centers in some regions; Casinos", "opened_industries": "Construction, real estate; Manufacturing, including auto companies; Offices", "opened_food_and_drink": "Bars for indoor service in certain counties; Restaurant dining; Bars for outdoor service", "closed_food_and_drink": "Bars for indoor service", "opened_retail": "Retail stores", "opened_personal_care": "Pet groomers; Hair salons, barbershops, nail salons, tattoo parlors", "closed_entertainment": null, "closed_outdoor_and_recreation": "Gyms", "opened_houses_of_worship": "True", "opened_outdoor_and_recreation": "Golf courses, marinas; Pools; Gyms in some regions", "population": "9986857"},
{"state_abbreviation": "MN", "state": "Minnesota", "status": "reopened", "date_details": "Reopened May 18.", "restriction_start": null, "restriction_end": null, "status_details": "Gov. Tim Walz, a Democrat, first allowed employees in certain agriculture, industrial and office settings to return to work in late April. More businesses were allowed to open after his stay-at-home order expired in May. Mr. Walz later ordered the use of face masks in most public settings beginning July 25.", "external_link": "https://www.startribune.com/walz-mandates-masks-indoors-across-state/571861471/", "opened_entertainment": "Theaters and concert halls; Bowling alleys, arcades and museums", "opened_industries": "Manufacturing; Offices", "opened_food_and_drink": "Restaurants and bars", "closed_food_and_drink": null, "opened_retail": "Retail stores; Malls", "opened_personal_care": "Salons, barbershops, tattoo parlors", "closed_entertainment": null, "closed_outdoor_and_recreation": null, "opened_houses_of_worship": "True", "opened_outdoor_and_recreation": "Campgrounds; Gyms", "population": "5639632"},
{"state_abbreviation": "MO", "state": "Missouri", "status": "reopened", "date_details": "Reopened May 4.", "restriction_start": null, "restriction_end": null, "status_details": "Gov. Mike Parson, a Republican, reopened all businesses in early May, with social distancing requirements, and lifted all restrictions on June 16. Since then, Missouri has seen several record-setting single-day increases in coronavirus cases.", "external_link": "https://abcnews.go.com/US/missouri-health-officials-call-aggressive-actions-covid-19/story?id=71998723", "opened_entertainment": "Movie theaters, music venues, etc.; Casinos", "opened_industries": null, "opened_food_and_drink": "Restaurant dining", "closed_food_and_drink": null, "opened_retail": "Retail stores", "opened_personal_care": "Salons, barbershops, tattoo parlors, etc.", "closed_entertainment": null, "closed_outdoor_and_recreation": null, "opened_houses_of_worship": "True", "opened_outdoor_and_recreation": "Gyms; Campgrounds", "population": "6137428"},
{"state_abbreviation": "MS", "state": "Mississippi", "status": "pausing", "date_details": "Reopened April 27.", "restriction_start": null, "restriction_end": null, "status_details": "Gov. Tate Reeves, a Republican, let the state\u2019s stay-at-home order expire April 27 and reopened retail stores, with some limits. All businesses were allowed to open in June, but in July Mr. Reeves said the state would pause a full reopening. As case numbers continued to climb, he tightened restrictions on social gatherings and bars statewide and later issued a mask mandate. School reopenings will be delayed for higher grades in certain counties.", "external_link": "https://www.wlox.com/2020/08/04/watch-gov-reeves-makes-announcement-schools/", "opened_entertainment": "Casinos; Movie theaters; Libraries, museums", "opened_industries": null, "opened_food_and_drink": "Restaurant dining, bars", "closed_food_and_drink": null, "opened_retail": "Retail stores", "opened_personal_care": "Salons and barbershops; Tattoo parlors", "closed_entertainment": null, "closed_outdoor_and_recreation": null, "opened_houses_of_worship": "True", "opened_outdoor_and_recreation": "State parks; Gyms", "population": "2976149"},
{"state_abbreviation": "MT", "state": "Montana", "status": "reopened", "date_details": "Reopened April 26.", "restriction_start": null, "restriction_end": null, "status_details": "Gov. Steve Bullock, a Democrat, allowed reopening in phases, beginning in late April. All businesses could reopen June 1, provided they followed certain guidelines. In July, citing rising case counts, Mr. Bullock ordered Montanans in certain counties to wear masks in many public settings. He later amended this order to include schools.", "external_link": "https://montanafreepress.org/2020/07/15/bullock-covid-masks-mandatory/", "opened_entertainment": "Museums, movie theaters; Concert venues; Bowling alleys; Casinos", "opened_industries": null, "opened_food_and_drink": "Restaurant dining, bars, breweries and distilleries", "closed_food_and_drink": null, "opened_retail": "Retail stores", "opened_personal_care": "Salons, barbershops, massage parlors", "closed_entertainment": null, "closed_outdoor_and_recreation": null, "opened_houses_of_worship": "True", "opened_outdoor_and_recreation": "Gyms", "population": "1068778"},
{"state_abbreviation": "NC", "state": "North Carolina", "status": "pausing", "date_details": "Reopened May 8.", "restriction_start": null, "restriction_end": null, "status_details": "Gov. Roy Cooper, a Democrat, allowed a variety of businesses to reopen in May. In late June, with cases counts trending upward, Mr. Cooper paused North Carolina\u2019s reopening plan and required residents to wear face coverings in public. Mr. Cooper has since extended the pause on reopening into September.", "external_link": "https://www.newsobserver.com/news/coronavirus/article244737227.html", "opened_entertainment": null, "opened_industries": null, "opened_food_and_drink": "Restaurant dining", "closed_food_and_drink": "Bars", "opened_retail": "Retail stores", "opened_personal_care": "Salons, barbershops, tattoo parlors", "closed_entertainment": "Movie theaters; Bowling alleys", "closed_outdoor_and_recreation": "Gyms", "opened_houses_of_worship": "True", "opened_outdoor_and_recreation": "Pools", "population": "10488084"},
{"state_abbreviation": "ND", "state": "North Dakota", "status": "reopened", "date_details": "Reopened May 1.", "restriction_start": null, "restriction_end": null, "status_details": "Gov. Doug Burgum, a Republican, never issued a stay-at-home order, and allowed a variety of businesses to reopen starting May 1.", "external_link": "https://bismarcktribune.com/news/local/health/task-force-created-as-burleigh-morton-blooms-into-coronavirus-hot-spot/article_65d08b69-223c-5d79-bafe-05352f3d12bd.html", "opened_entertainment": "Movie theaters; Music and entertainment venues", "opened_industries": null, "opened_food_and_drink": "Restaurant dining, bars", "closed_food_and_drink": null, "opened_retail": "Retail", "opened_personal_care": "Salons, tattoo parlors, massage therapy, etc.", "closed_entertainment": null, "closed_outdoor_and_recreation": null, "opened_houses_of_worship": "True", "opened_outdoor_and_recreation": "Gyms; Sports venues", "population": "762062"},
{"state_abbreviation": "NE", "state": "Nebraska", "status": "reopened", "date_details": "Reopened May 4.", "restriction_start": null, "restriction_end": null, "status_details": "Gov. Pete Ricketts, a Republican, never issued a stay-at-home order, but he put in place several restrictions on businesses, which he began to lift on a regional basis starting in early May. All counties have been in at least Phase 3, which allows for restaurants and bars to return to full capacity, since early July. Some counties are now in Phase 4, which removes all restrictions on a number of businesses.", "external_link": "https://journalstar.com/lifestyles/health-med-fit/health/covid-19-restrictions-eased-in-more-nebraska-counties/article_a548e328-3c36-5dd2-8704-720256692fb3.html", "opened_entertainment": "Zoos, movie theaters, libraries and venues", "opened_industries": null, "opened_food_and_drink": "Restaurant dining; Bars", "closed_food_and_drink": null, "opened_retail": "Retail", "opened_personal_care": "Salons, barbershops, tattoo parlors, etc.", "closed_entertainment": null, "closed_outdoor_and_recreation": null, "opened_houses_of_worship": "True", "opened_outdoor_and_recreation": "Pools; Gyms", "population": "1934408"},
{"state_abbreviation": "NH", "state": "New Hampshire", "status": "reopened", "date_details": "Reopened May 11.", "restriction_start": null, "restriction_end": null, "status_details": "Gov. Chris Sununu, a Republican, gradually reopened sectors starting in mid-May. On June 15, he allowed his stay-at-home order to expire and reopened businesses on a rolling basis. The final round of businesses reopened, with capacity limits and social distancing guidance, on June 29.", "external_link": "https://www.unionleader.com/news/health/coronavirus/all-nh-businesses-now-have-date-to-reopen/article_558bfac2-5c67-5163-9fa3-7d7fcb426d9f.html", "opened_entertainment": "Libraries, museums, art galleries; Bowling alleys and entertainment centers; Movie theaters; Amusement parks; Live performances", "opened_industries": null, "opened_food_and_drink": "Restaurant dining", "closed_food_and_drink": null, "opened_retail": "Retail stores", "opened_personal_care": "Barbershops, hair salons, etc.; Nail salons; Tanning salons; Tattoo shops; Acupuncturists and massage therapists", "closed_entertainment": null, "closed_outdoor_and_recreation": null, "opened_houses_of_worship": "True", "opened_outdoor_and_recreation": "Golf courses; Outdoor attractions; Beaches; Gyms; Pools", "population": "1359711"},
{"state_abbreviation": "NJ", "state": "New Jersey", "status": "pausing", "date_details": "Reopened June 9.", "restriction_start": null, "restriction_end": null, "status_details": "Gov. Phil Murphy, a Democrat, was one of the last governors to lift a stay-at-home order, on June 9. New Jersey cautiously reopened businesses over the course of May and June, and rolling reopenings were set to continue into July. After indefinitely delaying plans to reopen indoor dining early in the month, Mr. Murphy announced in mid-July that the state would pause in its current phase of reopening.", "external_link": "https://www.nj.com/coronavirus/2020/07/murphy-hitting-pause-on-reopening-as-coronavirus-rate-of-transmission-rises.html", "opened_entertainment": "Libraries for curbside pickup; Casinos; Playgrounds, water parks, amusement parks; Museums, libraries, aquariums; Bowling alleys, batting cages, shooting ranges", "opened_industries": "Construction", "opened_food_and_drink": "Outdoor dining at restaurants", "closed_food_and_drink": "Breweries, wineries and distilleries", "opened_retail": "Retail stores; Malls", "opened_personal_care": "Hair salons, barbershops; Nail salons, tattoo parlors, spas, massage therapy, tanning salons", "closed_entertainment": "Movie theaters", "closed_outdoor_and_recreation": null, "opened_houses_of_worship": "True", "opened_outdoor_and_recreation": "Golf courses; Beaches; Campgrounds; Gyms for personal training; Pools", "population": "8882190"},
{"state_abbreviation": "NM", "state": "New Mexico", "status": "reversing", "date_details": "Reopened May 16.", "restriction_start": null, "restriction_end": null, "status_details": "Gov. Michelle Lujan Grisham, a Democrat, allowed some sectors to reopen May 16. As cases rose, Ms. Grisham announced she would delay the next phase of reopening indefinitely, and later ordered restaurants to restrict indoor dining.", "external_link": "https://www.krqe.com/health/coronavirus-new-mexico/new-mexico-indoor-dining-reopening-plans-criteria-remain-unclear/", "opened_entertainment": null, "opened_industries": "Offices", "opened_food_and_drink": null, "closed_food_and_drink": "Bars; Restaurant dining; Indoor service at breweries", "opened_retail": "Retail stores; Malls", "opened_personal_care": "Pet grooming and boarding, veterinary services; Hair salons, barbershops, tattoo parlors, massage parlors, nail salons", "closed_entertainment": "Casinos; Theaters", "closed_outdoor_and_recreation": null, "opened_houses_of_worship": "True", "opened_outdoor_and_recreation": "State parks; Golf courses, boating; Gyms, pools", "population": "2096829"},
{"state_abbreviation": "NV", "state": "Nevada", "status": "reversing", "date_details": "Reopened May 9.", "restriction_start": null, "restriction_end": null, "status_details": "Gov. Steve Sisolak, a Democrat, kept pace with other states and reopened businesses throughout May. Casinos and gaming were allowed to resume operations on June 4. In response to a recent spike in cases, Mr. Sisolak tabled plans for Phase 3 and is now requiring Nevadans to wear face masks.", "external_link": "https://www.rgj.com/story/news/2020/07/27/sisolak-announcement-live-covid-nevada-coronavirus-update/5523115002/", "opened_entertainment": "Museums, art galleries, zoos and aquariums; Movie theaters, bowling alleys; Gaming", "opened_industries": null, "opened_food_and_drink": "Restaurants; Bars in some counties", "closed_food_and_drink": null, "opened_retail": "Retail stores; Malls", "opened_personal_care": "Barbershops, hair salons and nail salons; Massage therapy; Tattoo and piercing shops", "closed_entertainment": null, "closed_outdoor_and_recreation": null, "opened_houses_of_worship": "True", "opened_outdoor_and_recreation": "Golf courses, pickleball, tennis courts; State parks; Gyms; Pools and water parks", "population": "3080156"},
{"state_abbreviation": "NY", "state": "New York", "status": "reopening", "date_details": "Reopened May 29.", "restriction_start": null, "restriction_end": null, "status_details": "Gov. Andrew M. Cuomo, a Democrat, announced limited and phased reopenings by region starting May 15. New York City, the hardest-hit region in the state, became the last to enter Phase 4 of reopening on July 20. But unlike in other regions, indoor dining at restaurants remains prohibited and other indoor venues, like shopping malls, will stay closed in New York City.", "external_link": "https://www.nytimes.com/2020/07/20/nyregion/nyc-phase-4-reopening-bars.html", "opened_entertainment": "Museums and aquariums in some regions; Bowling alleys", "opened_industries": "Construction, manufacturing; Offices; Film and TV production", "opened_food_and_drink": "Outdoor dining at restaurants in some regions; Indoor dining in some regions", "closed_food_and_drink": null, "opened_retail": "Retail stores; Malls in some regions", "opened_personal_care": "Hair salons, barbershops; Tattoo parlors, massage parlors, nail salons", "closed_entertainment": "Movie theaters, casinos; Amusement parks", "closed_outdoor_and_recreation": "Gyms", "opened_houses_of_worship": "True", "opened_outdoor_and_recreation": "Beaches; Fishing and hunting; Public pools and playgrounds; Outdoor zoos, botanical gardens and nature parks", "population": "19453561"},
{"state_abbreviation": "OH", "state": "Ohio", "status": "reopening", "date_details": "Reopened May 12.", "restriction_start": null, "restriction_end": null, "status_details": "Gov. Mike DeWine, a Republican, lifted a stay-at-home order on May 1 and allowed businesses to reopen in phases, starting with retail stores, salons and restaurants. In July, Mr. DeWine asked several counties to limit activities and gatherings of any size, though he did not order any closures. Starting July 23, the use of face masks became mandatory statewide in both indoor and outdoor public spaces.", "external_link": "https://www.news5cleveland.com/news/state/ohio-gov-mike-dewine-announces-statewide-mask-mandate-effective-thursday", "opened_entertainment": "Movie theaters, museums, art galleries; Casinos, racinos, amusement parks, water parks", "opened_industries": "Manufacturing, distribution, construction; Offices", "opened_food_and_drink": "Restaurant dining and bars", "closed_food_and_drink": null, "opened_retail": "Retail stores", "opened_personal_care": "Salons, barbershops, etc.", "closed_entertainment": null, "closed_outdoor_and_recreation": null, "opened_houses_of_worship": "True", "opened_outdoor_and_recreation": "Campgrounds; Gyms, pools, and sports leagues; Bowling alleys, miniature golf and batting cages; Aquariums, zoos; Skating rinks, playgrounds, country clubs", "population": "11689100"},
{"state_abbreviation": "OK", "state": "Oklahoma", "status": "reopened", "date_details": "Reopened April 24.", "restriction_start": null, "restriction_end": null, "status_details": "Gov. Kevin Stitt, a Republican, implemented a three-phase approach to reopening businesses starting April 24. Phase 3 began in June, when all restrictions were lifted on businesses and group gatherings provided people \u201cconsider social distancing.\u201d", "external_link": "https://www.tulsaworld.com/news/oklahoma-to-begin-phase-3-of-reopening-monday-after-covid-19-data-shows-promising-downward/article_542617ce-c9e8-5825-bfdd-db6796999793.html#18", "opened_entertainment": "Movie theaters, sports venues, museums; Nightclubs", "opened_industries": "Offices", "opened_food_and_drink": "Restaurant dining; Bars", "closed_food_and_drink": null, "opened_retail": "Retail stores", "opened_personal_care": "Salons, barbershops, spas, pet groomers, etc.; Tattoo parlors", "closed_entertainment": null, "closed_outdoor_and_recreation": null, "opened_houses_of_worship": "True", "opened_outdoor_and_recreation": "State parks; Zoos; Gyms", "population": "3956971"},
{"state_abbreviation": "OR", "state": "Oregon", "status": "reversing", "date_details": "Reopened May 15.", "restriction_start": null, "restriction_end": null, "status_details": "Gov. Kate Brown, a Democrat, started a three-phase regional reopening on May 15, but said Phase 3 would not come until September at the earliest. Masks are required in both outdoor and indoor spaces, and indoor gatherings of more than 10 people are prohibited. Capacity for restaurants and bars was lowered, and Ms. Brown recently rolled back reopenings in three counties because of growing positive test rates.", "external_link": "https://www.eastoregonian.com/coronavirus/oregon-governor-tightens-virus-restrictions-for-malheur-county/article_a5ba1480-1070-5aab-9732-27a7df8c5df7.html", "opened_entertainment": "Movie theaters, bowling alleys in most counties", "opened_industries": "Offices in most counties", "opened_food_and_drink": "Restaurants and bars in most counties", "closed_food_and_drink": null, "opened_retail": "Retail stores", "opened_personal_care": "Salons, barbershops in most counties", "closed_entertainment": null, "closed_outdoor_and_recreation": null, "opened_houses_of_worship": "Houses of worship in most counties", "opened_outdoor_and_recreation": "Some state parks; Pools in most counties; Gyms in most counties", "population": "4217737"},
{"state_abbreviation": "PA", "state": "Pennsylvania", "status": "reopened", "date_details": "Reopened May 15.", "restriction_start": null, "restriction_end": null, "status_details": "Gov. Tom Wolf, a Democrat, took a county-by-county approach to shutting down and took a similar approach to reopening, allowing counties to open in phases. By July 3, all of the state was in the last phase of reopening, but wearing a mask is now required in all public places. Starting July 16, indoor dining was reduced to 25 percent capacity, and bars could open only for restaurant service. ", "external_link": "https://www.wgal.com/article/gov-tom-wolf-imposes-new-restrictions-on-pennsylvania-bars-restaurants-gatherings/33346910", "opened_entertainment": "Casinos, theaters", "opened_industries": null, "opened_food_and_drink": "Restaurants and bars", "closed_food_and_drink": null, "opened_retail": "Retail stores; Shopping malls", "opened_personal_care": "Hair salons, barbershops, spas", "closed_entertainment": null, "closed_outdoor_and_recreation": null, "opened_houses_of_worship": "True", "opened_outdoor_and_recreation": "Golf courses, marinas, private campgrounds; Beaches; State parks; Public pools; Gyms", "population": "12801989"},
{"state_abbreviation": "PR", "state": "Puerto Rico", "status": "reversing", "date_details": "Reopened May 26.", "restriction_start": null, "restriction_end": null, "status_details": "Gov. Wanda V\u00e1zquez announced a curfew and closed non-essential businesses in March. Restaurants and retail stores were allowed to reopen in late May. In mid-June, Ms. V\u00e1zquez eased the lockdown and allowed most businesses to reopen, but on July 17, she ordered the re-closure of bars, movie theaters, casinos and gyms and reduced indoor dining limits to 50 percent.", "external_link": "https://www.bloomberg.com/news/articles/2020-07-16/puerto-rico-closes-bars-movie-theaters-casinos-amid-pandemic", "opened_entertainment": "Museums; Outdoor concerts and other open venues", "opened_industries": null, "opened_food_and_drink": "Restaurants", "closed_food_and_drink": "Bars", "opened_retail": "Retail stores; Malls", "opened_personal_care": "Salons, barbershops; Pet grooming", "closed_entertainment": "Movie theaters; Casinos", "closed_outdoor_and_recreation": "Gyms", "opened_houses_of_worship": "True", "opened_outdoor_and_recreation": "Beaches", "population": "3193694"},
{"state_abbreviation": "RI", "state": "Rhode Island", "status": "pausing", "date_details": "Reopened May 9.", "restriction_start": null, "restriction_end": null, "status_details": "Gov. Gina Raimondo, a Democrat, announced a three-phase reopening plan starting with retail stores after her stay-at-home order lifted on May 8. Rhode Island entered its second phase of reopening in June, with restaurants, gyms, salons and beaches allowed to open. The third phase began June 30 and will be extended through the end of August, with indoor gatherings limited to 15 people.", "external_link": "https://www.wpri.com/health/coronavirus/july-29-ri-coronavirus-update/", "opened_entertainment": null, "opened_industries": "Offices; Malls", "opened_food_and_drink": "Restaurant dining", "closed_food_and_drink": null, "opened_retail": "Retail stores", "opened_personal_care": "Hair salons, barbershops; Nail salons, massage parlors, tattoo shops", "closed_entertainment": null, "closed_outdoor_and_recreation": null, "opened_houses_of_worship": "True", "opened_outdoor_and_recreation": "State parks; Beaches; Gyms; Casinos; Campgrounds", "population": "1059361"},
{"state_abbreviation": "SC", "state": "South Carolina", "status": "reopened", "date_details": "Reopened April 20.", "restriction_start": null, "restriction_end": null, "status_details": "Gov. Henry McMaster, a Republican, was among the last to issue a stay-at-home order and among the first to begin opening up his state, starting April 20 with retail stores. Mr. McMaster will allow movie theaters, concerts, race tracks or nightclubs to reopen starting August 3, but with a 50 percent capacity limit and a mask requirement. Restaurants will be required to follow the same safety guidelines.", "external_link": "https://www.wbtv.com/2020/07/29/sc-governor-announces-targeted-mask-requirements-reopens-more-businesses/", "opened_entertainment": "Museums, zoos, aquariums; Movie theaters, stadiums, festival parades, racetracks; Nightclubs", "opened_industries": null, "opened_food_and_drink": "Restaurant dining; Bars", "closed_food_and_drink": null, "opened_retail": "Retail stores", "opened_personal_care": "Salons, barbershops, tattoo parlors, etc.", "closed_entertainment": null, "closed_outdoor_and_recreation": null, "opened_houses_of_worship": "True", "opened_outdoor_and_recreation": "Beaches, piers, docks, etc.; Gyms; Pools; Amusement parks, water parks", "population": "5148714"},
{"state_abbreviation": "SD", "state": "South Dakota", "status": "reopened", "date_details": "Updated guidance for businesses and residents on April 28.", "restriction_start": null, "restriction_end": null, "status_details": "Gov. Kristi Noem, a Republican, refused to issue a stay-at-home order \u2014 despite requests from local officials \u2014 and did not close businesses in the state, though she ordered them to follow C.D.C. guidelines. She invited workers and business owners frustrated by lockdowns in other states to visit South Dakota.", "external_link": "https://www.usnews.com/news/best-states/south-dakota/articles/2020-04-28/south-dakota-governor-to-unveil-plan-to-reopen-state", "opened_entertainment": null, "opened_industries": null, "opened_food_and_drink": "Restaurant dining", "closed_food_and_drink": null, "opened_retail": "Retail stores", "opened_personal_care": "Salons, barbershops", "closed_entertainment": null, "closed_outdoor_and_recreation": null, "opened_houses_of_worship": "True", "opened_outdoor_and_recreation": "Gyms", "population": "884659"},
{"state_abbreviation": "TN", "state": "Tennessee", "status": "reopening", "date_details": "Reopened April 27.", "restriction_start": null, "restriction_end": null, "status_details": "Gov. Bill Lee, a Republican, announced reopening plans for 89 of 95 Tennessee counties starting April 27. The remaining counties were to follow individual reopening plans.", "external_link": "https://www.wsmv.com/news/tennessee-releases-new-guidelines-for-reopening-restaurants-retail-and-large-attractions/article_0f74cd22-9ad3-11ea-9f03-e3784e1e4029.html", "opened_entertainment": "Theaters, museums, amusement parks", "opened_industries": null, "opened_food_and_drink": "Restaurant dining", "closed_food_and_drink": null, "opened_retail": "Retail stores", "opened_personal_care": "Salons, barbershops, etc.", "closed_entertainment": null, "closed_outdoor_and_recreation": null, "opened_houses_of_worship": "True", "opened_outdoor_and_recreation": "State parks; Gyms", "population": "6829174"},
{"state_abbreviation": "TX", "state": "Texas", "status": "reversing", "date_details": "Reopened May 1.", "restriction_start": null, "restriction_end": null, "status_details": "Gov. Greg Abbott allowed his stay-at-home order to lapse on April 30, a move that gave Texas one of the shortest such orders in the country. A surge in cases in late June caused Mr. Abbott to order bars to close and restaurants to reduce capacity, among the first reopening reversals in the country. Starting July 3, he once again encouraged Texans to stay home and required face covering in public places in counties with more than 20 cases.", "external_link": "https://www.texastribune.org/2020/06/26/texas-bars-restaurants-coronavirus-greg-abbott/", "opened_entertainment": "Movie theaters, museums, libraries; Bowling alleys, bingo halls, skating rinks, rodeos; Aquariums; Amusement parks; Carnivals", "opened_industries": "Offices, manufacturing", "opened_food_and_drink": "Restaurant dining", "closed_food_and_drink": "Bars", "opened_retail": "Retail stores, malls", "opened_personal_care": "Salons, barbershops, etc.; Massage services", "closed_entertainment": null, "closed_outdoor_and_recreation": null, "opened_houses_of_worship": "True", "opened_outdoor_and_recreation": "State parks; Pools; Gyms; Water parks; Zoos", "population": "28995881"},
{"state_abbreviation": "UT", "state": "Utah", "status": "reopened", "date_details": "Reopened May 1.", "restriction_start": null, "restriction_end": null, "status_details": "Gov. Gary R. Herbert, a Republican, started to reopen Utah by region on May 1. Now, just one county remains at \u201cmoderate risk,\u201d and restaurants, gyms and salons are open everywhere.", "external_link": "https://www.sltrib.com/news/2020/04/28/utah-will-begin-easing/", "opened_entertainment": "Movie theatres, museums, libraries, concerts", "opened_industries": null, "opened_food_and_drink": "Restaurant dining", "closed_food_and_drink": null, "opened_retail": "Retail stores", "opened_personal_care": "Salons, personal care businesses", "closed_entertainment": null, "closed_outdoor_and_recreation": null, "opened_houses_of_worship": "True", "opened_outdoor_and_recreation": "Gyms; Pools", "population": "3205958"},
{"state_abbreviation": "VA", "state": "Virginia", "status": "reopened", "date_details": "Reopened May 15.", "restriction_start": null, "restriction_end": null, "status_details": "Gov. Ralph Northam, a Democrat, started reopening much of the state on May 15, and all counties moved into Phase 3 on July 1. Starting July 31, Mr. Northam will implement restrictions on restaurants and bars in some counties and public gatherings will be limited. ", "external_link": "https://www.wsls.com/news/2020/06/30/bar-seating-will-be-prohibited-in-virginia-restaurants-during-phase-3-gov-northam-says/", "opened_entertainment": "Museums, zoos, aquariums, outdoor concerts", "opened_industries": null, "opened_food_and_drink": "Restaurants and bars", "closed_food_and_drink": null, "opened_retail": "Retail stores", "opened_personal_care": "Salons, barbershops, etc.", "closed_entertainment": null, "closed_outdoor_and_recreation": null, "opened_houses_of_worship": "True", "opened_outdoor_and_recreation": "Campgrounds; Beaches; Gyms; Pools", "population": "8535519"},
{"state_abbreviation": "VT", "state": "Vermont", "status": "reopened", "date_details": "Reopened May 15.", "restriction_start": null, "restriction_end": null, "status_details": "Gov. Phil Scott, a Republican, allowed small changes, such as the opening of farmers\u2019 markets, before a broader reopening beginning with retail stores on May 18. Other businesses, such as gyms and restaurants, reopened in June. Face masks are required in both indoor and outdoor public spaces.", "external_link": "https://vtdigger.org/2020/07/24/scott-orders-mask-mandate/", "opened_entertainment": "Museums, theaters, libraries", "opened_industries": "Manufacturing, construction, distribution", "opened_food_and_drink": "Restaurant dining; Bars", "closed_food_and_drink": null, "opened_retail": "Retail stores", "opened_personal_care": "Hair salons and barbershops; Nail salons, spas, tattoo parlors", "closed_entertainment": null, "closed_outdoor_and_recreation": null, "opened_houses_of_worship": "True", "opened_outdoor_and_recreation": "State parks, golf courses, trails, etc.; Campgrounds; Gyms, fitness centers", "population": "623989"},
{"state_abbreviation": "WA", "state": "Washington", "status": "pausing", "date_details": "Reopened May 26.", "restriction_start": null, "restriction_end": null, "status_details": "While every county has now moved into some phase of reopening, Gov. Jay Inslee, a Democrat, said he would pause further reopenings indefinitely. Mr. Inslee also expanded an order to use face coverings in all public spaces starting July 25. Restaurants, gyms and movie theaters must reduce capacity in some counties.", "external_link": "https://www.seattlepi.com/coronavirus/article/inslee-extends-phase-pause-indefinitely-wa-state-15441125.php", "opened_entertainment": "Casinos", "opened_industries": "Construction", "opened_food_and_drink": "Restaurant dining in most counties", "closed_food_and_drink": null, "opened_retail": "Retail stores", "opened_personal_care": "Gyms in most counties; Hair salons, barbershops, tattoo parlors, etc.; Pet grooming", "closed_entertainment": null, "closed_outdoor_and_recreation": null, "opened_houses_of_worship": "True", "opened_outdoor_and_recreation": "State parks, fishing, hunting, golf courses", "population": "7614893"},
{"state_abbreviation": "WI", "state": "Wisconsin", "status": "reopened", "date_details": "Reopened May 13.", "restriction_start": null, "restriction_end": null, "status_details": "The state Supreme Court struck down Gov. Tony Evers's stay-at-home order on May 13, effectively lifting statewide restrictions on businesses in Wisconsin. Mr. Evers, a Democrat in a highly contested battleground state, had already announced plans for a gradual reopening but warned the ruling would cause \u201cchaos.\u201d Some counties have since placed their own restrictions on businesses. Mr. Evers mandated the use of face coverings in all public indoor places starting August 1. ", "external_link": "https://www.jsonline.com/story/news/2020/05/14/wisconsin-bars-hair-salons-dine-restaurants-open-after-supreme-court-ruling-stay-home-order-evers/5194195002/", "opened_entertainment": null, "opened_industries": null, "opened_food_and_drink": "Restaurants and bars", "closed_food_and_drink": null, "opened_retail": "Retail stores", "opened_personal_care": "Pet groomers for curbside dropoff; Hair salons, spas, barbershops", "closed_entertainment": null, "closed_outdoor_and_recreation": null, "opened_houses_of_worship": "True", "opened_outdoor_and_recreation": "Golf courses; State parks; Gyms", "population": "5822434"},
{"state_abbreviation": "WV", "state": "West Virginia", "status": "reopened", "date_details": "Reopened May 4.", "restriction_start": null, "restriction_end": null, "status_details": "West Virginia\u2019s stay-at-home order was in place for a little more than a month. Gov. Jim Justice, a Republican, lifted restrictions on certain businesses on May 4, with new reopenings each following week. Starting July 7, face coverings are required where social distance can\u2019t be maintained. The governor limited social gatherings to 25 people, ordered the closure of fairs, festivals and concerts statewide and ordered bars in Monongalia County to close starting July 14.", "external_link": "https://www.wvnstv.com/top-stories/coming-soon-wv-covid-19-update-july-13-2020/", "opened_entertainment": "Museums, zoos; Bowling alleys, pool halls, roller rinks; Casinos; Movie theaters; Amusement parks, fairs, festivals", "opened_industries": null, "opened_food_and_drink": "Restaurant dining; Bars", "closed_food_and_drink": null, "opened_retail": "Retail stores; Malls", "opened_personal_care": "Salons, barbershops, pet groomers; Tanning salons; Massage parlors and spas", "closed_entertainment": null, "closed_outdoor_and_recreation": null, "opened_houses_of_worship": "True", "opened_outdoor_and_recreation": "Gyms, recreation centers; State parks, campgrounds; Pools", "population": "1792147"},
{"state_abbreviation": "WY", "state": "Wyoming", "status": "reopened", "date_details": "Reopened May 1.", "restriction_start": null, "restriction_end": null, "status_details": "Gov. Mark Gordon, a Republican, did not order Wyoming residents to stay home, and he began lifting restrictions on businesses May 1. However, Mr. Gordon recently extended safety measures on restaurants, bars and gyms through August 31. Beginninig August 16, outdoor venues can hold gatherings of up to 1,000 people.", "external_link": "https://www.wyomingpublicmedia.org/post/larger-outdoor-gatherings-allowed-housing-assistance-expands-aid#stream/0", "opened_entertainment": "Movie theaters, entertaiment venues", "opened_industries": null, "opened_food_and_drink": "Restaurant dining; Bars", "closed_food_and_drink": null, "opened_retail": "Retail stores", "opened_personal_care": "Hair salons, barbershops, tattoo parlors, massage therapy, etc.", "closed_entertainment": null, "closed_outdoor_and_recreation": null, "opened_houses_of_worship": "True", "opened_outdoor_and_recreation": "Gyms; State parks", "population": "578759"}]